{
  "single": {
    "type": "object",
    "required": [
      "data",
      "meta"
    ],
    "properties": {
      "data": {
        "$ref": "../breeder.json"
      },
      "meta": {
        "$ref": "../metadata.json"
      }
    }
  }
}